; Engine configuration file.
; It's best edited using the editor UI and not directly,
; since the parameters that go here are not all obvious.
;
; Format:
;   [section] ; section goes between []
;   param=value ; assign values to parameters

config_version=4

_global_script_classes=[  ]
_global_script_class_icons={

}

[application]

config/name="GameJam-CSUI"
run/main_scene="res://Main/Menu.tscn"
config/icon="res://icon.png"

[autoload]

Stats="*res://Util/Stats.gd"

[display]

window/size/width=2048
window/size/height=1200
window/stretch/mode="viewport"

[input]

attack={
"deadzone": 0.5,
"events": [ Object(InputEventMouseButton,"resource_local_to_scene":false,"resource_name":"","device":0,"alt":false,"shift":false,"control":false,"meta":false,"command":false,"button_mask":0,"position":Vector2( 0, 0 ),"global_position":Vector2( 0, 0 ),"factor":1.0,"button_index":2,"pressed":false,"doubleclick":false,"script":null)
 ]
}

[layer_names]

2d_physics/layer_1="World"
2d_physics/layer_2="Player"
2d_physics/layer_3="Enemy"
2d_physics/layer_4="Player Hitbox"
2d_physics/layer_5="Enemy Hitbox"
2d_physics/layer_6="Player Attack"
2d_physics/layer_7="Enemy Attack"
2d_physics/layer_8="Soft Collision"

[rendering]

environment/default_environment="res://default_env.tres"
